k = 1  error: 21.0850644019
line function: f(x) = 2.04 * x + 1.49
k  train error    test error
2 3.30585568356 3.85489436165
3 3.25529614734 3.34385729251
4 3.20662505453 3.75649098885
5 3.20662479705 3.75307366897
6 3.08597750101 13.4662121593
7 3.05432767309 20.2518480924
8 2.99058409587 24.0029764197
9 2.97615445542 9.50885474355
10 2.81084504175 1177.25290474
best function: f(x) = -0.01 * x^3 + 0.54 * x^2 + 2.22 * x^1 - 3.23 * x^0
